example_3_tb.vcd
$date
	Fri Jun 19 15:13:30 2026
$end
$version
	Icarus Verilog
$end
$timescale
	1s
$end
$scope module example_3_tb $end
$var wire 1 ! f $end
$var reg 1 " x1 $end
$var reg 1 # x2 $end
$var reg 1 $ x3 $end
$scope module DUT $end
$var wire 1 % a $end
$var wire 1 & b $end
$var wire 1 ' c $end
$var wire 1 ! f $end
$var wire 1 " x1 $end
$var wire 1 # x2 $end
$var wire 1 $ x3 $end
$upscope $end
$upscope $end
$enddefinitions $end
$comment Show the parameter values. $end
$dumpall
$end
#0
$dumpvars
1'
0&
0%
0$
0#
0"
0!
$end
#10
1"
#20
1!
1%
0"
1#
#30
1"
#40
0!
0%
0'
0"
0#
1$
#50
1!
1&
1"
#60
0!
0&
0"
1#
#70
1!
1&
1"
